[
  {
    "COURSES": [
      {
        "code": "DIG2632",
        "courseId": "030415",
        "name": "Creating Mobile Games",
        "termInd": " ",
        "description": "Introduces designing mobile video games with simple drag and drop programming and basic asset creation. Covers the essential principles of design and development needed to create effective arcade-style games. Provides a solid foundation in the technical skills needed to create multi-platform mobile games.",
        "prerequisites": "",
        "sections": [
          {
            "number": "101B",
            "classNumber": 12959,
            "gradBasis": "GRD",
            "acadCareer": "UGRD",
            "display": "Creating Mobile Games",
            "credits": 3,
            "credits_min": 3,
            "credits_max": 3,
            "note": "",
            "dNote": "",
            "genEd": [],
            "sectWeb": "PC",
            "rotateTitle": "",
            "deptCode": 13050000,
            "deptName": "Digital Worlds Institute",
            "courseFee": 0,
            "lateFlag": "N",
            "EEP": "Y",
            "LMS": "",
            "instructors": [
              {
                "name": "George Heitzman"
              },
              {
                "name": "George Heitzman"
              }
            ],
            "meetTimes": [
              {
                "meetNo": 1,
                "meetDays": [
                  "T"
                ],
                "meetTimeBegin": "11:45 AM",
                "meetTimeEnd": "1:40 PM",
                "meetPeriodBegin": "5",
                "meetPeriodEnd": "6",
                "meetBuilding": "NRG",
                "meetBldgCode": "0102",
                "meetRoom": "0205"
              },
              {
                "meetNo": 2,
                "meetDays": [
                  "R"
                ],
                "meetTimeBegin": "12:50 PM",
                "meetTimeEnd": "1:40 PM",
                "meetPeriodBegin": "6",
                "meetPeriodEnd": "6",
                "meetBuilding": "NRG",
                "meetBldgCode": "0102",
                "meetRoom": "0205"
              }
            ],
            "addEligible": "Y",
            "grWriting": "N",
            "finalExam": "12/12/2019 @ 3:00 PM - 5:00 PM",
            "dropaddDeadline": "08/26/2019",
            "pastDeadline": false
          }
        ]
      },
      {
        "code": "DIG3020",
        "courseId": "024723",
        "name": "Foundations of Digital Culture",
        "termInd": " ",
        "description": "Interdisciplinary overview of the technological and cultural developments that continue to shape the modern world. Student research covers topics including telecommunications, digital and analog technologies, video games, computer-generated entertainment and the rise of social media. (WR)",
        "prerequisites": "Prereq: (Digital Arts and Sciences BA or BS major) or instructor permission.",
        "sections": [
          {
            "number": "197C",
            "classNumber": 12960,
            "gradBasis": "GRD",
            "acadCareer": "UGRD",
            "display": "Found of Dig Culture",
            "credits": 3,
            "credits_min": 3,
            "credits_max": 3,
            "note": "",
            "dNote": "",
            "genEd": [],
            "sectWeb": "AD",
            "rotateTitle": "",
            "deptCode": 13050000,
            "deptName": "Digital Worlds Institute",
            "courseFee": 0,
            "lateFlag": "N",
            "EEP": "Y",
            "LMS": "",
            "instructors": [
              {
                "name": "James Oliverio"
              }
            ],
            "meetTimes": [],
            "addEligible": "Y",
            "grWriting": "4",
            "finalExam": "",
            "dropaddDeadline": "08/26/2019",
            "pastDeadline": false
          },
          {
            "number": "197D",
            "classNumber": 12961,
            "gradBasis": "GRD",
            "acadCareer": "UGRD",
            "display": "Found of Dig Culture",
            "credits": 3,
            "credits_min": 3,
            "credits_max": 3,
            "note": "",
            "dNote": "",
            "genEd": [],
            "sectWeb": "PC",
            "rotateTitle": "",
            "deptCode": 13050000,
            "deptName": "Digital Worlds Institute",
            "courseFee": 0,
            "lateFlag": "N",
            "EEP": "Y",
            "LMS": "",
            "instructors": [
              {
                "name": "James Oliverio"
              },
              {
                "name": "James Oliverio"
              }
            ],
            "meetTimes": [
              {
                "meetNo": 1,
                "meetDays": [
                  "T"
                ],
                "meetTimeBegin": "1:55 PM",
                "meetTimeEnd": "2:45 PM",
                "meetPeriodBegin": "7",
                "meetPeriodEnd": "7",
                "meetBuilding": "NRG",
                "meetBldgCode": "0102",
                "meetRoom": "0205"
              },
              {
                "meetNo": 2,
                "meetDays": [
                  "R"
                ],
                "meetTimeBegin": "1:55 PM",
                "meetTimeEnd": "3:50 PM",
                "meetPeriodBegin": "7",
                "meetPeriodEnd": "8",
                "meetBuilding": "NRG",
                "meetBldgCode": "0102",
                "meetRoom": "0205"
              }
            ],
            "addEligible": "Y",
            "grWriting": "4",
            "finalExam": "12/11/2019 @ 10:00 AM - 12:00 PM",
            "dropaddDeadline": "08/26/2019",
            "pastDeadline": false
          }
        ]
      },
      {
        "code": "DIG3305C",
        "courseId": "026197",
        "name": "3D Digital Animation Techniques",
        "termInd": " ",
        "description": "Introduces the foundations of creating 3D digital environments and animations; implement industry-standard animation principles and practices, including reference-centric animation and polygonal modeling.",
        "prerequisites": "Prereq: DAR major and DIG 3313C with minimum grade of C.",
        "sections": [
          {
            "number": "026E",
            "classNumber": 12992,
            "gradBasis": "GRD",
            "acadCareer": "UGRD",
            "display": "3d Digital Anima Tech",
            "credits": 3,
            "credits_min": 3,
            "credits_max": 3,
            "note": "",
            "dNote": "",
            "genEd": [],
            "sectWeb": "PC",
            "rotateTitle": "",
            "deptCode": 13050000,
            "deptName": "Digital Worlds Institute",
            "courseFee": 0,
            "lateFlag": "N",
            "EEP": "Y",
            "LMS": "",
            "instructors": [
              {
                "name": "Aaron Karlson"
              },
              {
                "name": "Aaron Karlson"
              }
            ],
            "meetTimes": [
              {
                "meetNo": 1,
                "meetDays": [
                  "M"
                ],
                "meetTimeBegin": "11:45 AM",
                "meetTimeEnd": "1:40 PM",
                "meetPeriodBegin": "5",
                "meetPeriodEnd": "6",
                "meetBuilding": "NRG",
                "meetBldgCode": "0102",
                "meetRoom": "0120"
              },
              {
                "meetNo": 2,
                "meetDays": [
                  "W"
                ],
                "meetTimeBegin": "12:50 PM",
                "meetTimeEnd": "1:40 PM",
                "meetPeriodBegin": "6",
                "meetPeriodEnd": "6",
                "meetBuilding": "NRG",
                "meetBldgCode": "0102",
                "meetRoom": "0120"
              }
            ],
            "addEligible": "Y",
            "grWriting": "N",
            "finalExam": "12/10/2019 @ 12:30 PM - 2:30 PM",
            "dropaddDeadline": "08/26/2019",
            "pastDeadline": false
          },
          {
            "number": "2D76",
            "classNumber": 12993,
            "gradBasis": "GRD",
            "acadCareer": "UGRD",
            "display": "3d Digital Anima Tech",
            "credits": 3,
            "credits_min": 3,
            "credits_max": 3,
            "note": "",
            "dNote": "",
            "genEd": [],
            "sectWeb": "PC",
            "rotateTitle": "",
            "deptCode": 13050000,
            "deptName": "Digital Worlds Institute",
            "courseFee": 0,
            "lateFlag": "N",
            "EEP": "Y",
            "LMS": "",
            "instructors": [
              {
                "name": "Aaron Karlson"
              },
              {
                "name": "Aaron Karlson"
              }
            ],
            "meetTimes": [
              {
                "meetNo": 1,
                "meetDays": [
                  "T"
                ],
                "meetTimeBegin": "11:45 AM",
                "meetTimeEnd": "1:40 PM",
                "meetPeriodBegin": "5",
                "meetPeriodEnd": "6",
                "meetBuilding": "NRG",
                "meetBldgCode": "0102",
                "meetRoom": "0120"
              },
              {
                "meetNo": 2,
                "meetDays": [
                  "R"
                ],
                "meetTimeBegin": "12:50 PM",
                "meetTimeEnd": "1:40 PM",
                "meetPeriodBegin": "6",
                "meetPeriodEnd": "6",
                "meetBuilding": "NRG",
                "meetBldgCode": "0102",
                "meetRoom": "0120"
              }
            ],
            "addEligible": "Y",
            "grWriting": "N",
            "finalExam": "12/12/2019 @ 3:00 PM - 5:00 PM",
            "dropaddDeadline": "08/26/2019",
            "pastDeadline": false
          }
        ]
      },
      {
        "code": "DIG3313C",
        "courseId": "026198",
        "name": "2D Digital Animation Techniques",
        "termInd": " ",
        "description": "Introduces foundational knowledge of animation in a 2D space; learn how to design and implement character, abstract, and shape animation.",
        "prerequisites": "Prereq: Digital Arts and Sciences BA major.",
        "sections": [
          {
            "number": "2E47",
            "classNumber": 12854,
            "gradBasis": "GRD",
            "acadCareer": "UGRD",
            "display": "2d Dig Animation Tech",
            "credits": 3,
            "credits_min": 3,
            "credits_max": 3,
            "note": "",
            "dNote": "",
            "genEd": [],
            "sectWeb": "PC",
            "rotateTitle": "",
            "deptCode": 13050000,
            "deptName": "Digital Worlds Institute",
            "courseFee": 0,
            "lateFlag": "N",
            "EEP": "Y",
            "LMS": "",
            "instructors": [
              {
                "name": "Chelsea Cantrell"
              },
              {
                "name": "Chelsea Cantrell"
              }
            ],
            "meetTimes": [
              {
                "meetNo": 1,
                "meetDays": [
                  "T"
                ],
                "meetTimeBegin": "1:55 PM",
                "meetTimeEnd": "2:45 PM",
                "meetPeriodBegin": "7",
                "meetPeriodEnd": "7",
                "meetBuilding": "NRG",
                "meetBldgCode": "0102",
                "meetRoom": "0120"
              },
              {
                "meetNo": 2,
                "meetDays": [
                  "R"
                ],
                "meetTimeBegin": "1:55 PM",
                "meetTimeEnd": "3:50 PM",
                "meetPeriodBegin": "7",
                "meetPeriodEnd": "8",
                "meetBuilding": "NRG",
                "meetBldgCode": "0102",
                "meetRoom": "0120"
              }
            ],
            "addEligible": "Y",
            "grWriting": "N",
            "finalExam": "12/11/2019 @ 10:00 AM - 12:00 PM",
            "dropaddDeadline": "08/26/2019",
            "pastDeadline": false
          },
          {
            "number": "238A",
            "classNumber": 12995,
            "gradBasis": "GRD",
            "acadCareer": "UGRD",
            "display": "2d Dig Animation Tech",
            "credits": 3,
            "credits_min": 3,
            "credits_max": 3,
            "note": "",
            "dNote": "",
            "genEd": [],
            "sectWeb": "PC",
            "rotateTitle": "",
            "deptCode": 13050000,
            "deptName": "Digital Worlds Institute",
            "courseFee": 0,
            "lateFlag": "N",
            "EEP": "Y",
            "LMS": "",
            "instructors": [
              {
                "name": "Chelsea Cantrell"
              },
              {
                "name": "Chelsea Cantrell"
              }
            ],
            "meetTimes": [
              {
                "meetNo": 1,
                "meetDays": [
                  "M"
                ],
                "meetTimeBegin": "1:55 PM",
                "meetTimeEnd": "2:45 PM",
                "meetPeriodBegin": "7",
                "meetPeriodEnd": "7",
                "meetBuilding": "NRG",
                "meetBldgCode": "0102",
                "meetRoom": "0120"
              },
              {
                "meetNo": 2,
                "meetDays": [
                  "W"
                ],
                "meetTimeBegin": "1:55 PM",
                "meetTimeEnd": "3:50 PM",
                "meetPeriodBegin": "7",
                "meetPeriodEnd": "8",
                "meetBuilding": "NRG",
                "meetBldgCode": "0102",
                "meetRoom": "0120"
              }
            ],
            "addEligible": "Y",
            "grWriting": "N",
            "finalExam": "12/12/2019 @ 10:00 AM - 12:00 PM",
            "dropaddDeadline": "08/26/2019",
            "pastDeadline": false
          }
        ]
      },
      {
        "code": "DIG3433",
        "courseId": "026199",
        "name": "Digital Storytelling",
        "termInd": " ",
        "description": "Develops a framework for integrating participation and storytelling as the foundation of interactivity. Explores how story is incorporated into contemporary interactive platforms such as games and other digital media, including virtual worlds, video blogs and social networks.",
        "prerequisites": "Prereq: Digital Arts and Sciences BA major with junior standing or higher.",
        "sections": [
          {
            "number": "239A",
            "classNumber": 12856,
            "gradBasis": "GRD",
            "acadCareer": "UGRD",
            "display": "Digital Storytelling",
            "credits": 3,
            "credits_min": 3,
            "credits_max": 3,
            "note": "",
            "dNote": "",
            "genEd": [],
            "sectWeb": "PC",
            "rotateTitle": "",
            "deptCode": 13050000,
            "deptName": "Digital Worlds Institute",
            "courseFee": 0,
            "lateFlag": "N",
            "EEP": "Y",
            "LMS": "",
            "instructors": [
              {
                "name": "Kyle Bohunicky"
              },
              {
                "name": "Kyle Bohunicky"
              }
            ],
            "meetTimes": [
              {
                "meetNo": 1,
                "meetDays": [
                  "M"
                ],
                "meetTimeBegin": "10:40 AM",
                "meetTimeEnd": "11:30 AM",
                "meetPeriodBegin": "4",
                "meetPeriodEnd": "4",
                "meetBuilding": "NRG",
                "meetBldgCode": "0102",
                "meetRoom": "0205"
              },
              {
                "meetNo": 2,
                "meetDays": [
                  "W"
                ],
                "meetTimeBegin": "10:40 AM",
                "meetTimeEnd": "12:35 PM",
                "meetPeriodBegin": "4",
                "meetPeriodEnd": "5",
                "meetBuilding": "NRG",
                "meetBldgCode": "0102",
                "meetRoom": "0205"
              }
            ],
            "addEligible": "Y",
            "grWriting": "N",
            "finalExam": "12/11/2019 @ 7:30 AM - 9:30 AM",
            "dropaddDeadline": "08/26/2019",
            "pastDeadline": false
          },
          {
            "number": "2E99",
            "classNumber": 12859,
            "gradBasis": "GRD",
            "acadCareer": "UGRD",
            "display": "Digital Storytelling",
            "credits": 3,
            "credits_min": 3,
            "credits_max": 3,
            "note": "",
            "dNote": "",
            "genEd": [],
            "sectWeb": "AD",
            "rotateTitle": "",
            "deptCode": 13050000,
            "deptName": "Digital Worlds Institute",
            "courseFee": 0,
            "lateFlag": "N",
            "EEP": "Y",
            "LMS": "",
            "instructors": [
              {
                "name": "Michael Clark"
              }
            ],
            "meetTimes": [],
            "addEligible": "Y",
            "grWriting": "N",
            "finalExam": "",
            "dropaddDeadline": "08/26/2019",
            "pastDeadline": false
          }
        ]
      },
      {
        "code": "DIG3525C",
        "courseId": "026201",
        "name": "DAS Design and Production Studio 1",
        "termInd": " ",
        "description": "Provides digital imaging and design foundations in visualization. Also offers an introduction to the foundation of interface tools in industry standard digital imaging software.",
        "prerequisites": "Prereq: Digital Arts and Sciences BA major.",
        "sections": [
          {
            "number": "197F",
            "classNumber": 12862,
            "gradBasis": "GRD",
            "acadCareer": "UGRD",
            "display": "DAS Dsgn and Prod Std 1",
            "credits": 3,
            "credits_min": 3,
            "credits_max": 3,
            "note": "",
            "dNote": "",
            "genEd": [],
            "sectWeb": "PC",
            "rotateTitle": "",
            "deptCode": 13050000,
            "deptName": "Digital Worlds Institute",
            "courseFee": 0,
            "lateFlag": "N",
            "EEP": "Y",
            "LMS": "",
            "instructors": [
              {
                "name": "Chelsea Cantrell"
              },
              {
                "name": "Chelsea Cantrell"
              }
            ],
            "meetTimes": [
              {
                "meetNo": 1,
                "meetDays": [
                  "M"
                ],
                "meetTimeBegin": "10:40 AM",
                "meetTimeEnd": "11:30 AM",
                "meetPeriodBegin": "4",
                "meetPeriodEnd": "4",
                "meetBuilding": "NRG",
                "meetBldgCode": "0102",
                "meetRoom": "0120"
              },
              {
                "meetNo": 2,
                "meetDays": [
                  "W"
                ],
                "meetTimeBegin": "10:40 AM",
                "meetTimeEnd": "12:35 PM",
                "meetPeriodBegin": "4",
                "meetPeriodEnd": "5",
                "meetBuilding": "NRG",
                "meetBldgCode": "0102",
                "meetRoom": "0120"
              }
            ],
            "addEligible": "Y",
            "grWriting": "N",
            "finalExam": "12/11/2019 @ 7:30 AM - 9:30 AM",
            "dropaddDeadline": "08/26/2019",
            "pastDeadline": false
          },
          {
            "number": "2F09",
            "classNumber": 12890,
            "gradBasis": "GRD",
            "acadCareer": "UGRD",
            "display": "DAS Dsgn and Prod Std 1",
            "credits": 3,
            "credits_min": 3,
            "credits_max": 3,
            "note": "",
            "dNote": "",
            "genEd": [],
            "sectWeb": "PC",
            "rotateTitle": "",
            "deptCode": 13050000,
            "deptName": "Digital Worlds Institute",
            "courseFee": 0,
            "lateFlag": "N",
            "EEP": "Y",
            "LMS": "",
            "instructors": [
              {
                "name": "Chelsea Cantrell"
              },
              {
                "name": "Chelsea Cantrell"
              }
            ],
            "meetTimes": [
              {
                "meetNo": 1,
                "meetDays": [
                  "T"
                ],
                "meetTimeBegin": "10:40 AM",
                "meetTimeEnd": "11:30 AM",
                "meetPeriodBegin": "4",
                "meetPeriodEnd": "4",
                "meetBuilding": "NRG",
                "meetBldgCode": "0102",
                "meetRoom": "0120"
              },
              {
                "meetNo": 2,
                "meetDays": [
                  "R"
                ],
                "meetTimeBegin": "10:40 AM",
                "meetTimeEnd": "12:35 PM",
                "meetPeriodBegin": "4",
                "meetPeriodEnd": "5",
                "meetBuilding": "NRG",
                "meetBldgCode": "0102",
                "meetRoom": "0120"
              }
            ],
            "addEligible": "Y",
            "grWriting": "N",
            "finalExam": "12/12/2019 @ 7:30 AM - 9:30 AM",
            "dropaddDeadline": "08/26/2019",
            "pastDeadline": false
          }
        ]
      },
      {
        "code": "DIG3713",
        "courseId": "026203",
        "name": "Game Design Practices",
        "termInd": " ",
        "description": "Provides both theoretical and practical knowledge and essential technical skills for the conceptualization and digital visualization of video game assets. Covers the principles and practical applications of industry-standard software suites. Emphasizes developing strong foundational skills, compelling conceptual ideas, and self-motivated problem solving.",
        "prerequisites": "Prereq: Digital Arts and Sciences BA major of junior standing or higher.",
        "sections": [
          {
            "number": "0263",
            "classNumber": 12892,
            "gradBasis": "GRD",
            "acadCareer": "UGRD",
            "display": "Game Design Practices",
            "credits": 3,
            "credits_min": 3,
            "credits_max": 3,
            "note": "",
            "dNote": "",
            "genEd": [],
            "sectWeb": "PC",
            "rotateTitle": "",
            "deptCode": 13050000,
            "deptName": "Digital Worlds Institute",
            "courseFee": 0,
            "lateFlag": "N",
            "EEP": "Y",
            "LMS": "",
            "instructors": [
              {
                "name": "George Heitzman"
              },
              {
                "name": "George Heitzman"
              }
            ],
            "meetTimes": [
              {
                "meetNo": 1,
                "meetDays": [
                  "M"
                ],
                "meetTimeBegin": "3:00 PM",
                "meetTimeEnd": "4:55 PM",
                "meetPeriodBegin": "8",
                "meetPeriodEnd": "9",
                "meetBuilding": "NRG",
                "meetBldgCode": "0102",
                "meetRoom": "0120"
              },
              {
                "meetNo": 2,
                "meetDays": [
                  "W"
                ],
                "meetTimeBegin": "4:05 PM",
                "meetTimeEnd": "4:55 PM",
                "meetPeriodBegin": "9",
                "meetPeriodEnd": "9",
                "meetBuilding": "NRG",
                "meetBldgCode": "0102",
                "meetRoom": "0120"
              }
            ],
            "addEligible": "Y",
            "grWriting": "N",
            "finalExam": "12/12/2019 @ 5:30 PM - 7:30 PM",
            "dropaddDeadline": "08/26/2019",
            "pastDeadline": false
          },
          {
            "number": "027A",
            "classNumber": 12893,
            "gradBasis": "GRD",
            "acadCareer": "UGRD",
            "display": "Game Design Practices",
            "credits": 3,
            "credits_min": 3,
            "credits_max": 3,
            "note": "",
            "dNote": "",
            "genEd": [],
            "sectWeb": "PC",
            "rotateTitle": "",
            "deptCode": 13050000,
            "deptName": "Digital Worlds Institute",
            "courseFee": 0,
            "lateFlag": "N",
            "EEP": "Y",
            "LMS": "",
            "instructors": [
              {
                "name": "George Heitzman"
              },
              {
                "name": "George Heitzman"
              }
            ],
            "meetTimes": [
              {
                "meetNo": 1,
                "meetDays": [
                  "T"
                ],
                "meetTimeBegin": "8:30 AM",
                "meetTimeEnd": "10:25 AM",
                "meetPeriodBegin": "2",
                "meetPeriodEnd": "3",
                "meetBuilding": "NRG",
                "meetBldgCode": "0102",
                "meetRoom": "0120"
              },
              {
                "meetNo": 2,
                "meetDays": [
                  "R"
                ],
                "meetTimeBegin": "9:35 AM",
                "meetTimeEnd": "10:25 AM",
                "meetPeriodBegin": "3",
                "meetPeriodEnd": "3",
                "meetBuilding": "NRG",
                "meetBldgCode": "0102",
                "meetRoom": "0120"
              }
            ],
            "addEligible": "Y",
            "grWriting": "N",
            "finalExam": "12/11/2019 @ 3:00 PM - 5:00 PM",
            "dropaddDeadline": "08/26/2019",
            "pastDeadline": false
          }
        ]
      },
      {
        "code": "DIG3873",
        "courseId": "026949",
        "name": "Theory of Digital Media Protocols",
        "termInd": " ",
        "description": "Covers the theory behind the design of digital media systems, data-flow logic, binary data structures and pseudo-code description of computational algorithms. The students will be exposed to fundamental principles of computer coding and scripting and protocols of communication between digital systems.",
        "prerequisites": "Prereq: Digital Arts and Sciences BA major of junior standing or higher.",
        "sections": [
          {
            "number": "3D48",
            "classNumber": 12898,
            "gradBasis": "GRD",
            "acadCareer": "UGRD",
            "display": "Theory Dig Media Prot",
            "credits": 3,
            "credits_min": 3,
            "credits_max": 3,
            "note": "",
            "dNote": "",
            "genEd": [],
            "sectWeb": "PC",
            "rotateTitle": "",
            "deptCode": 13050000,
            "deptName": "Digital Worlds Institute",
            "courseFee": 0,
            "lateFlag": "N",
            "EEP": "Y",
            "LMS": "",
            "instructors": [
              {
                "name": "Markus Santoso"
              },
              {
                "name": "Markus Santoso"
              }
            ],
            "meetTimes": [
              {
                "meetNo": 1,
                "meetDays": [
                  "M"
                ],
                "meetTimeBegin": "1:55 PM",
                "meetTimeEnd": "2:45 PM",
                "meetPeriodBegin": "7",
                "meetPeriodEnd": "7",
                "meetBuilding": "NRG",
                "meetBldgCode": "0102",
                "meetRoom": "0205"
              },
              {
                "meetNo": 2,
                "meetDays": [
                  "W"
                ],
                "meetTimeBegin": "1:55 PM",
                "meetTimeEnd": "3:50 PM",
                "meetPeriodBegin": "7",
                "meetPeriodEnd": "8",
                "meetBuilding": "NRG",
                "meetBldgCode": "0102",
                "meetRoom": "0205"
              }
            ],
            "addEligible": "Y",
            "grWriting": "N",
            "finalExam": "12/12/2019 @ 10:00 AM - 12:00 PM",
            "dropaddDeadline": "08/26/2019",
            "pastDeadline": false
          }
        ]
      },
      {
        "code": "DIG4354",
        "courseId": "036946",
        "name": "3D Character Animation",
        "termInd": " ",
        "description": "This course teaches techniques for 3D character animations. Students will practice character development, pipeline management, procedural framework simulation, and basic rigging alongside studies of motion picture animation. By the end of the course, students will master industry-standard tools to animate basic 3D objects, 3D bipedal motion, and key-framing.",
        "prerequisites": "Prereq: DAR major and DIG4306C with minimum grade of C.",
        "sections": [
          {
            "number": "3CAC",
            "classNumber": 25134,
            "gradBasis": "GRD",
            "acadCareer": "UGRD",
            "display": "Departmentally Controlled",
            "credits": 3,
            "credits_min": 3,
            "credits_max": 3,
            "note": "",
            "dNote": "",
            "genEd": [],
            "sectWeb": "PC",
            "rotateTitle": "",
            "deptCode": 13050000,
            "deptName": "Digital Worlds Institute",
            "courseFee": 0,
            "lateFlag": "N",
            "EEP": "N",
            "LMS": "",
            "instructors": [
              {
                "name": "Aaron Karlson"
              }
            ],
            "meetTimes": [
              {
                "meetNo": 1,
                "meetDays": [
                  "T"
                ],
                "meetTimeBegin": "3:00 PM",
                "meetTimeEnd": "4:55 PM",
                "meetPeriodBegin": "8",
                "meetPeriodEnd": "9",
                "meetBuilding": "",
                "meetBldgCode": "",
                "meetRoom": ""
              },
              {
                "meetNo": 2,
                "meetDays": [
                  "R"
                ],
                "meetTimeBegin": "4:05 PM",
                "meetTimeEnd": "4:55 PM",
                "meetPeriodBegin": "9",
                "meetPeriodEnd": "9",
                "meetBuilding": "",
                "meetBldgCode": "",
                "meetRoom": ""
              }
            ],
            "addEligible": "Y",
            "grWriting": "N",
            "finalExam": "",
            "dropaddDeadline": "08/26/2019",
            "pastDeadline": false
          },
          {
            "number": "3CAS",
            "classNumber": 25135,
            "gradBasis": "GRD",
            "acadCareer": "UGRD",
            "display": "Departmentally Controlled",
            "credits": 3,
            "credits_min": 3,
            "credits_max": 3,
            "note": "",
            "dNote": "",
            "genEd": [],
            "sectWeb": "AD",
            "rotateTitle": "",
            "deptCode": 13050000,
            "deptName": "Digital Worlds Institute",
            "courseFee": 0,
            "lateFlag": "N",
            "EEP": "N",
            "LMS": "",
            "instructors": [
              {
                "name": "Aaron Karlson"
              }
            ],
            "meetTimes": [],
            "addEligible": "Y",
            "grWriting": "N",
            "finalExam": "",
            "dropaddDeadline": "08/26/2019",
            "pastDeadline": false
          }
        ]
      },
      {
        "code": "DIG4527C",
        "courseId": "026205",
        "name": "Game Design and Production",
        "termInd": " ",
        "description": "Interdisciplinary approach to game design and production. Emphasizes rapid prototyping, agile design, collaboration, and project management in a relatively short development cycle. Work on idea pitches, write concept proposals, and work to develop a video game.",
        "prerequisites": "Prereq: DAR major and DIG 4715C with minimum grade of C.",
        "sections": [
          {
            "number": 2293,
            "classNumber": 12927,
            "gradBasis": "GRD",
            "acadCareer": "UGRD",
            "display": "Game Design & Prod",
            "credits": 3,
            "credits_min": 3,
            "credits_max": 3,
            "note": "",
            "dNote": "",
            "genEd": [],
            "sectWeb": "PC",
            "rotateTitle": "",
            "deptCode": 13050000,
            "deptName": "Digital Worlds Institute",
            "courseFee": 0,
            "lateFlag": "N",
            "EEP": "Y",
            "LMS": "",
            "instructors": [
              {
                "name": "Marko Suvajdzic"
              },
              {
                "name": "Marko Suvajdzic"
              }
            ],
            "meetTimes": [
              {
                "meetNo": 1,
                "meetDays": [
                  "M"
                ],
                "meetTimeBegin": "11:45 AM",
                "meetTimeEnd": "1:40 PM",
                "meetPeriodBegin": "5",
                "meetPeriodEnd": "6",
                "meetBuilding": "NRG",
                "meetBldgCode": "0102",
                "meetRoom": "0205"
              },
              {
                "meetNo": 2,
                "meetDays": [
                  "W"
                ],
                "meetTimeBegin": "12:50 PM",
                "meetTimeEnd": "1:40 PM",
                "meetPeriodBegin": "6",
                "meetPeriodEnd": "6",
                "meetBuilding": "NRG",
                "meetBldgCode": "0102",
                "meetRoom": "0205"
              }
            ],
            "addEligible": "Y",
            "grWriting": "N",
            "finalExam": "12/10/2019 @ 12:30 PM - 2:30 PM",
            "dropaddDeadline": "08/26/2019",
            "pastDeadline": false
          }
        ]
      },
      {
        "code": "DIG4540C",
        "courseId": "036994",
        "name": "Production of Immersive Environments",
        "termInd": " ",
        "description": "Projects cover the foundational knowledge of immersive technologies such as AR and VR; provides hands-on experience developing a fully functioning immersive experience prototype.",
        "prerequisites": "Prereq: DIG 3305C and DIG 3878 with minimum grades of C and Digital Arts and Sciences B.A. major with junior standing or higher.",
        "sections": [
          {
            "number": "PIE1",
            "classNumber": 24891,
            "gradBasis": "GRD",
            "acadCareer": "UGRD",
            "display": "PROD OF IMMERSIVE ENV",
            "credits": 3,
            "credits_min": 3,
            "credits_max": 3,
            "note": "",
            "dNote": "",
            "genEd": [],
            "sectWeb": "PC",
            "rotateTitle": "",
            "deptCode": 13050000,
            "deptName": "Digital Worlds Institute",
            "courseFee": 0,
            "lateFlag": "N",
            "EEP": "N",
            "LMS": "",
            "instructors": [
              {
                "name": "Angelos Barmpoutis"
              },
              {
                "name": "Angelos Barmpoutis"
              }
            ],
            "meetTimes": [
              {
                "meetNo": 1,
                "meetDays": [
                  "T"
                ],
                "meetTimeBegin": "10:40 AM",
                "meetTimeEnd": "11:30 AM",
                "meetPeriodBegin": "4",
                "meetPeriodEnd": "4",
                "meetBuilding": "",
                "meetBldgCode": "",
                "meetRoom": ""
              },
              {
                "meetNo": 2,
                "meetDays": [
                  "R"
                ],
                "meetTimeBegin": "10:40 AM",
                "meetTimeEnd": "12:35 PM",
                "meetPeriodBegin": "4",
                "meetPeriodEnd": "5",
                "meetBuilding": "",
                "meetBldgCode": "",
                "meetRoom": ""
              }
            ],
            "addEligible": "Y",
            "grWriting": "N",
            "finalExam": "",
            "dropaddDeadline": "08/26/2019",
            "pastDeadline": false
          }
        ]
      },
      {
        "code": "DIG4634",
        "courseId": "027552",
        "name": "Wearable and Mobile App Development",
        "termInd": " ",
        "description": "Examines software development protocols for wearable and mobile electronics such as head-mounted displays, watches, and cellphones. Studies several embedded input/output interfaces, including position and orientation sensors, hand trackers, holographic, and stereoscopic displays. Materials are practiced by developing prototype software applications for such devices.",
        "prerequisites": "Prereq: DIG 3878 with minimum grade of C.",
        "sections": [
          {
            "number": "239G",
            "classNumber": 12931,
            "gradBasis": "GRD",
            "acadCareer": "UGRD",
            "display": "Wearable and Mobile App",
            "credits": 3,
            "credits_min": 3,
            "credits_max": 3,
            "note": "",
            "dNote": "",
            "genEd": [],
            "sectWeb": "PC",
            "rotateTitle": "",
            "deptCode": 13050000,
            "deptName": "Digital Worlds Institute",
            "courseFee": 0,
            "lateFlag": "N",
            "EEP": "Y",
            "LMS": "",
            "instructors": [
              {
                "name": "Angelos Barmpoutis"
              },
              {
                "name": "Angelos Barmpoutis"
              }
            ],
            "meetTimes": [
              {
                "meetNo": 1,
                "meetDays": [
                  "M"
                ],
                "meetTimeBegin": "3:00 PM",
                "meetTimeEnd": "4:55 PM",
                "meetPeriodBegin": "8",
                "meetPeriodEnd": "9",
                "meetBuilding": "NRG",
                "meetBldgCode": "0102",
                "meetRoom": "0205"
              },
              {
                "meetNo": 2,
                "meetDays": [
                  "W"
                ],
                "meetTimeBegin": "4:05 PM",
                "meetTimeEnd": "4:55 PM",
                "meetPeriodBegin": "9",
                "meetPeriodEnd": "9",
                "meetBuilding": "NRG",
                "meetBldgCode": "0102",
                "meetRoom": "0205"
              }
            ],
            "addEligible": "Y",
            "grWriting": "N",
            "finalExam": "12/12/2019 @ 5:30 PM - 7:30 PM",
            "dropaddDeadline": "08/26/2019",
            "pastDeadline": false
          }
        ]
      },
      {
        "code": "DIG4905",
        "courseId": "026533",
        "name": "Independent Study: ADV DESIGN/PRODUCTION",
        "termInd": " ",
        "description": "Independent study of special or individual DIG projects and issues, under faculty supervision.",
        "prerequisites": "Prereq: consent of faculty member supervising the study.",
        "sections": [
          {
            "number": "4D80",
            "classNumber": 12934,
            "gradBasis": "GRD",
            "acadCareer": "UGRD",
            "display": "Independent Study",
            "credits": 3,
            "credits_min": 3,
            "credits_max": 3,
            "note": "",
            "dNote": "",
            "genEd": [],
            "sectWeb": "PC",
            "rotateTitle": "",
            "deptCode": 13050000,
            "deptName": "Digital Worlds Institute",
            "courseFee": 0,
            "lateFlag": "N",
            "EEP": "N",
            "LMS": "",
            "instructors": [
              {
                "name": "Darius Brown"
              },
              {
                "name": "Darius Brown"
              }
            ],
            "meetTimes": [
              {
                "meetNo": 1,
                "meetDays": [
                  "T"
                ],
                "meetTimeBegin": "9:35 AM",
                "meetTimeEnd": "11:30 AM",
                "meetPeriodBegin": "3",
                "meetPeriodEnd": "4",
                "meetBuilding": "NRG",
                "meetBldgCode": "0102",
                "meetRoom": "0207"
              },
              {
                "meetNo": 2,
                "meetDays": [
                  "R"
                ],
                "meetTimeBegin": "10:40 AM",
                "meetTimeEnd": "11:30 AM",
                "meetPeriodBegin": "4",
                "meetPeriodEnd": "4",
                "meetBuilding": "NRG",
                "meetBldgCode": "0102",
                "meetRoom": "0207"
              }
            ],
            "addEligible": "Y",
            "grWriting": "N",
            "finalExam": "12/10/2019 @ 5:30 PM - 7:30 PM",
            "dropaddDeadline": "08/26/2019",
            "pastDeadline": false
          }
        ]
      },
      {
        "code": "DIG4905",
        "courseId": "026533",
        "name": "Independent Study",
        "termInd": " ",
        "description": "Independent study of special or individual DIG projects and issues, under faculty supervision.",
        "prerequisites": "Prereq: consent of faculty member supervising the study.",
        "sections": [
          {
            "number": "4D81",
            "classNumber": 12962,
            "gradBasis": "GRD",
            "acadCareer": "UGRD",
            "display": "Independent Study",
            "credits": 3,
            "credits_min": 3,
            "credits_max": 3,
            "note": "",
            "dNote": "",
            "genEd": [],
            "sectWeb": "PC",
            "rotateTitle": "",
            "deptCode": 13050000,
            "deptName": "Digital Worlds Institute",
            "courseFee": 0,
            "lateFlag": "N",
            "EEP": "N",
            "LMS": "",
            "instructors": [],
            "meetTimes": [],
            "addEligible": "Y",
            "grWriting": "N",
            "finalExam": "12/10/2019 @ 7:30 AM - 9:30 AM",
            "dropaddDeadline": "08/26/2019",
            "pastDeadline": false
          }
        ]
      },
      {
        "code": "DIG4905",
        "courseId": "026533",
        "name": "Independent Study: IMAGINEERING TECHNOSP",
        "termInd": " ",
        "description": "Independent study of special or individual DIG projects and issues, under faculty supervision.",
        "prerequisites": "Prereq: consent of faculty member supervising the study.",
        "sections": [
          {
            "number": "15E1",
            "classNumber": 24159,
            "gradBasis": "GRD",
            "acadCareer": "UGRD",
            "display": "Independent Study",
            "credits": 3,
            "credits_min": 3,
            "credits_max": 3,
            "note": "",
            "dNote": "",
            "genEd": [],
            "sectWeb": "PC",
            "rotateTitle": "",
            "deptCode": 13050000,
            "deptName": "Digital Worlds Institute",
            "courseFee": 0,
            "lateFlag": "N",
            "EEP": "N",
            "LMS": "",
            "instructors": [
              {
                "name": "Angelos Barmpoutis"
              }
            ],
            "meetTimes": [
              {
                "meetNo": 1,
                "meetDays": [
                  "T"
                ],
                "meetTimeBegin": "1:55 PM",
                "meetTimeEnd": "4:55 PM",
                "meetPeriodBegin": "7",
                "meetPeriodEnd": "9",
                "meetBuilding": "MSL",
                "meetBldgCode": "0043",
                "meetRoom": "L136"
              }
            ],
            "addEligible": "Y",
            "grWriting": "N",
            "finalExam": "12/11/2019 @ 10:00 AM - 12:00 PM",
            "dropaddDeadline": "08/26/2019",
            "pastDeadline": false
          }
        ]
      },
      {
        "code": "DIG4917",
        "courseId": "036479",
        "name": "Undergraduate Research in DAS",
        "termInd": " ",
        "description": "Provides research experience at the intersection of digital arts and sciences. Research assistants work directly with faculty to explore and produce various research in interactive tools and technologies. Accelerate professional development as both a researcher and digital artist.",
        "prerequisites": "Prereq: Junior level or higher.",
        "sections": [
          {
            "number": "URS1",
            "classNumber": 23186,
            "gradBasis": "SUS",
            "acadCareer": "UGRD",
            "display": "Departmentally Controlled",
            "credits": "VAR",
            "credits_min": 0,
            "credits_max": 3,
            "note": "",
            "dNote": "",
            "genEd": [],
            "sectWeb": "PC",
            "rotateTitle": "",
            "deptCode": 13050000,
            "deptName": "Digital Worlds Institute",
            "courseFee": 0,
            "lateFlag": "N",
            "EEP": "N",
            "LMS": "",
            "instructors": [
              {
                "name": "Markus Santoso"
              }
            ],
            "meetTimes": [],
            "addEligible": "Y",
            "grWriting": "N",
            "finalExam": "",
            "dropaddDeadline": "08/26/2019",
            "pastDeadline": false
          }
        ]
      },
      {
        "code": "DIG4942",
        "courseId": "036838",
        "name": "Undergraduate Course Assistant",
        "termInd": " ",
        "description": "Provides hands-on experience teaching digital arts and sciences at the college level. Under the supervision of a faculty member, lab assistants help prepare and discuss course materials, work with students during office hours, and play a critical role in facilitating learning.",
        "prerequisites": "Prereq: DAR major and junior or higher standing.",
        "sections": [
          {
            "number": "UCA1",
            "classNumber": 25185,
            "gradBasis": "SUS",
            "acadCareer": "UGRD",
            "display": "Departmentally Controlled",
            "credits": "VAR",
            "credits_min": 0,
            "credits_max": 3,
            "note": "",
            "dNote": "",
            "genEd": [],
            "sectWeb": "PC",
            "rotateTitle": "",
            "deptCode": 13050000,
            "deptName": "Digital Worlds Institute",
            "courseFee": 0,
            "lateFlag": "N",
            "EEP": "N",
            "LMS": "",
            "instructors": [
              {
                "name": "George Heitzman"
              }
            ],
            "meetTimes": [],
            "addEligible": "Y",
            "grWriting": "N",
            "finalExam": "",
            "dropaddDeadline": "08/26/2019",
            "pastDeadline": false
          },
          {
            "number": "UCA2",
            "classNumber": 25186,
            "gradBasis": "SUS",
            "acadCareer": "UGRD",
            "display": "Departmentally Controlled",
            "credits": "VAR",
            "credits_min": 0,
            "credits_max": 3,
            "note": "",
            "dNote": "",
            "genEd": [],
            "sectWeb": "PC",
            "rotateTitle": "",
            "deptCode": 13050000,
            "deptName": "Digital Worlds Institute",
            "courseFee": 0,
            "lateFlag": "N",
            "EEP": "N",
            "LMS": "",
            "instructors": [],
            "meetTimes": [],
            "addEligible": "Y",
            "grWriting": "N",
            "finalExam": "",
            "dropaddDeadline": "08/26/2019",
            "pastDeadline": false
          },
          {
            "number": "UCA3",
            "classNumber": 25187,
            "gradBasis": "SUS",
            "acadCareer": "UGRD",
            "display": "Departmentally Controlled",
            "credits": "VAR",
            "credits_min": 0,
            "credits_max": 3,
            "note": "",
            "dNote": "",
            "genEd": [],
            "sectWeb": "PC",
            "rotateTitle": "",
            "deptCode": 13050000,
            "deptName": "Digital Worlds Institute",
            "courseFee": 0,
            "lateFlag": "N",
            "EEP": "N",
            "LMS": "",
            "instructors": [
              {
                "name": "Aaron Karlson"
              }
            ],
            "meetTimes": [],
            "addEligible": "Y",
            "grWriting": "N",
            "finalExam": "",
            "dropaddDeadline": "08/26/2019",
            "pastDeadline": false
          },
          {
            "number": "UCA4",
            "classNumber": 25188,
            "gradBasis": "SUS",
            "acadCareer": "UGRD",
            "display": "Departmentally Controlled",
            "credits": "VAR",
            "credits_min": 0,
            "credits_max": 3,
            "note": "",
            "dNote": "",
            "genEd": [],
            "sectWeb": "PC",
            "rotateTitle": "",
            "deptCode": 13050000,
            "deptName": "Digital Worlds Institute",
            "courseFee": 0,
            "lateFlag": "N",
            "EEP": "N",
            "LMS": "",
            "instructors": [
              {
                "name": "Chelsea Cantrell"
              }
            ],
            "meetTimes": [],
            "addEligible": "Y",
            "grWriting": "N",
            "finalExam": "",
            "dropaddDeadline": "08/26/2019",
            "pastDeadline": false
          }
        ]
      },
      {
        "code": "DIG4944C",
        "courseId": "036478",
        "name": "Production Practicum",
        "termInd": " ",
        "description": "Production Practicum will provide DAS students hands-on experience producing and executing real-world digital media projects. Students will participate in many production roles, collaborating with peers and clients in a professional studio environment. In the process, students will accelerate their professional development as a producer within the digital arts and sciences.",
        "prerequisites": "Prereq: Junior level or higher.",
        "sections": [
          {
            "number": "PPR1",
            "classNumber": 23187,
            "gradBasis": "SUS",
            "acadCareer": "UGRD",
            "display": "Departmentally Controlled",
            "credits": "VAR",
            "credits_min": 0,
            "credits_max": 3,
            "note": "",
            "dNote": "",
            "genEd": [],
            "sectWeb": "PC",
            "rotateTitle": "",
            "deptCode": 13050000,
            "deptName": "Digital Worlds Institute",
            "courseFee": 0,
            "lateFlag": "N",
            "EEP": "N",
            "LMS": "",
            "instructors": [
              {
                "name": "Darius Brown"
              }
            ],
            "meetTimes": [],
            "addEligible": "Y",
            "grWriting": "N",
            "finalExam": "",
            "dropaddDeadline": "08/26/2019",
            "pastDeadline": false
          }
        ]
      },
      {
        "code": "DIG6050C",
        "courseId": "025836",
        "name": "Entertainment Technology: ENTERTAINMENT TECHNOL",
        "termInd": " ",
        "description": "Evolving digital entertainment technologies and techniques, providing a forum to discuss current and future multimedia and hybrid media technologies, including the completion of an original design, script or treatment for a digital entertainment artifact.",
        "prerequisites": "Prereq: admission in MA DAS program or consent of instructor.",
        "sections": [
          {
            "number": 1025,
            "classNumber": 12966,
            "gradBasis": "GRD",
            "acadCareer": "GRAD",
            "display": "Departmentally Controlled",
            "credits": 2,
            "credits_min": 2,
            "credits_max": 2,
            "note": "This section meets AUG 19 UNTIL OCT 11   These dates may not include final examinations.",
            "dNote": "",
            "genEd": [],
            "sectWeb": "PC",
            "rotateTitle": "",
            "deptCode": 13050000,
            "deptName": "Digital Worlds Institute",
            "courseFee": 0,
            "lateFlag": "N",
            "EEP": "Y",
            "LMS": "",
            "instructors": [
              {
                "name": "Angelos Barmpoutis"
              }
            ],
            "meetTimes": [
              {
                "meetNo": 1,
                "meetDays": [
                  "T",
                  "R"
                ],
                "meetTimeBegin": "10:40 AM",
                "meetTimeEnd": "12:35 PM",
                "meetPeriodBegin": "4",
                "meetPeriodEnd": "5",
                "meetBuilding": "",
                "meetBldgCode": "",
                "meetRoom": ""
              }
            ],
            "addEligible": "Y",
            "grWriting": "N",
            "finalExam": "12/9/2019 @ 3:00 PM - 5:00 PM",
            "dropaddDeadline": "08/22/2019",
            "pastDeadline": false
          }
        ]
      },
      {
        "code": "DIG6125C",
        "courseId": "025837",
        "name": "Digital Design & Visualization",
        "termInd": " ",
        "description": "Creation of 2D and 3D content for large-scale visualization systems employed in the creative services and industrial design fields. Providing participatory experience in controlling multi-screen sound and visualization environments in both intermediate and large-scale display environments.",
        "prerequisites": "Prereq: admission in MA DAS program or consent of instructor.",
        "sections": [
          {
            "number": "103G",
            "classNumber": 12967,
            "gradBasis": "GRD",
            "acadCareer": "GRAD",
            "display": "Departmentally Controlled",
            "credits": 2,
            "credits_min": 2,
            "credits_max": 2,
            "note": "This section meets AUG 19 UNTIL OCT 11   These dates may not include final examinations.",
            "dNote": "",
            "genEd": [],
            "sectWeb": "PC",
            "rotateTitle": "",
            "deptCode": 13050000,
            "deptName": "Digital Worlds Institute",
            "courseFee": 0,
            "lateFlag": "N",
            "EEP": "Y",
            "LMS": "",
            "instructors": [
              {
                "name": "Seung Jang"
              }
            ],
            "meetTimes": [
              {
                "meetNo": 1,
                "meetDays": [
                  "M",
                  "W"
                ],
                "meetTimeBegin": "1:55 PM",
                "meetTimeEnd": "3:50 PM",
                "meetPeriodBegin": "7",
                "meetPeriodEnd": "8",
                "meetBuilding": "",
                "meetBldgCode": "",
                "meetRoom": ""
              }
            ],
            "addEligible": "Y",
            "grWriting": "N",
            "finalExam": "12/13/2019 @ 10:00 AM - 12:00 PM",
            "dropaddDeadline": "08/22/2019",
            "pastDeadline": false
          }
        ]
      },
      {
        "code": "DIG6850",
        "courseId": "025842",
        "name": "Digital Arts & Sciences Convergence: DAS Convergence",
        "termInd": " ",
        "description": "Explores implications, ramifications, and transformations resulting from the convergence of traditional and digital technologies with cultural phenomena. Interdisciplinary teams study and undertake projects integrating aspects of global cultures, film, video games, animation,  communications, and the recording arts.",
        "prerequisites": "Prereq: admission in MA DAS program or consent of instructor.",
        "sections": [
          {
            "number": 1036,
            "classNumber": 12456,
            "gradBasis": "GRD",
            "acadCareer": "GRAD",
            "display": "Departmentally Controlled",
            "credits": 2,
            "credits_min": 2,
            "credits_max": 2,
            "note": "This section meets OCT 14 UNTIL DEC 06   These dates may not include final examinations.",
            "dNote": "",
            "genEd": [],
            "sectWeb": "PC",
            "rotateTitle": "",
            "deptCode": 13050000,
            "deptName": "Digital Worlds Institute",
            "courseFee": 0,
            "lateFlag": "N",
            "EEP": "Y",
            "LMS": "",
            "instructors": [
              {
                "name": "Markus Santoso"
              }
            ],
            "meetTimes": [
              {
                "meetNo": 1,
                "meetDays": [
                  "M",
                  "W"
                ],
                "meetTimeBegin": "10:40 AM",
                "meetTimeEnd": "12:35 PM",
                "meetPeriodBegin": "4",
                "meetPeriodEnd": "5",
                "meetBuilding": "",
                "meetBldgCode": "",
                "meetRoom": ""
              }
            ],
            "addEligible": "Y",
            "grWriting": "N",
            "finalExam": "12/9/2019 @ 3:00 PM - 5:00 PM",
            "dropaddDeadline": "10/16/2019",
            "pastDeadline": false
          }
        ]
      },
      {
        "code": "DIG6931C",
        "courseId": "025843",
        "name": "Special Topics: PRINCIPLES AR&VR ENVIRONMENTS",
        "termInd": " ",
        "description": "Special Topics",
        "prerequisites": "",
        "sections": [
          {
            "number": "PAVE",
            "classNumber": 24683,
            "gradBasis": "GRD",
            "acadCareer": "GRAD",
            "display": "Special Topics",
            "credits": 3,
            "credits_min": 3,
            "credits_max": 3,
            "note": "",
            "dNote": "",
            "genEd": [],
            "sectWeb": "PC",
            "rotateTitle": "",
            "deptCode": 13050000,
            "deptName": "Digital Worlds Institute",
            "courseFee": 0,
            "lateFlag": "N",
            "EEP": "N",
            "LMS": "",
            "instructors": [
              {
                "name": "Angelos Barmpoutis"
              },
              {
                "name": "Angelos Barmpoutis"
              }
            ],
            "meetTimes": [
              {
                "meetNo": 1,
                "meetDays": [
                  "T"
                ],
                "meetTimeBegin": "10:40 AM",
                "meetTimeEnd": "11:30 AM",
                "meetPeriodBegin": "4",
                "meetPeriodEnd": "4",
                "meetBuilding": "CSE",
                "meetBldgCode": "0042",
                "meetRoom": "E413"
              },
              {
                "meetNo": 2,
                "meetDays": [
                  "R"
                ],
                "meetTimeBegin": "10:40 AM",
                "meetTimeEnd": "12:35 PM",
                "meetPeriodBegin": "4",
                "meetPeriodEnd": "5",
                "meetBuilding": "CSE",
                "meetBldgCode": "0042",
                "meetRoom": "E413"
              }
            ],
            "addEligible": "Y",
            "grWriting": "N",
            "finalExam": "",
            "dropaddDeadline": "08/26/2019",
            "pastDeadline": false
          }
        ]
      },
      {
        "code": "DIG6931C",
        "courseId": "025843",
        "name": "Special Topics: DESIGN IMPLEMENTATION",
        "termInd": " ",
        "description": "Special Topics",
        "prerequisites": "",
        "sections": [
          {
            "number": 1034,
            "classNumber": 12458,
            "gradBasis": "GRD",
            "acadCareer": "GRAD",
            "display": "Departmentally Controlled",
            "credits": 2,
            "credits_min": 2,
            "credits_max": 2,
            "note": "This section meets AUG 19 UNTIL OCT 11   These dates may not include final examinations.",
            "dNote": "",
            "genEd": [],
            "sectWeb": "PC",
            "rotateTitle": "",
            "deptCode": 13050000,
            "deptName": "Digital Worlds Institute",
            "courseFee": 0,
            "lateFlag": "N",
            "EEP": "Y",
            "LMS": "",
            "instructors": [
              {
                "name": "Seung Jang"
              }
            ],
            "meetTimes": [
              {
                "meetNo": 1,
                "meetDays": [
                  "M",
                  "W"
                ],
                "meetTimeBegin": "10:40 AM",
                "meetTimeEnd": "12:35 PM",
                "meetPeriodBegin": "4",
                "meetPeriodEnd": "5",
                "meetBuilding": "",
                "meetBldgCode": "",
                "meetRoom": ""
              }
            ],
            "addEligible": "Y",
            "grWriting": "N",
            "finalExam": "12/10/2019 @ 5:30 PM - 7:30 PM",
            "dropaddDeadline": "08/22/2019",
            "pastDeadline": false
          }
        ]
      },
      {
        "code": "DIG6931C",
        "courseId": "025843",
        "name": "Special Topics: Audio for Video Games",
        "termInd": " ",
        "description": "Special Topics",
        "prerequisites": "",
        "sections": [
          {
            "number": "AVG1",
            "classNumber": 24894,
            "gradBasis": "GRD",
            "acadCareer": "GRAD",
            "display": "Special Topics",
            "credits": "VAR",
            "credits_min": 1,
            "credits_max": 3,
            "note": "",
            "dNote": "",
            "genEd": [],
            "sectWeb": "PC",
            "rotateTitle": "",
            "deptCode": 13050000,
            "deptName": "Digital Worlds Institute",
            "courseFee": 0,
            "lateFlag": "N",
            "EEP": "N",
            "LMS": "",
            "instructors": [
              {
                "name": "Timothy Difato"
              }
            ],
            "meetTimes": [
              {
                "meetNo": 1,
                "meetDays": [
                  "M",
                  "W"
                ],
                "meetTimeBegin": "1:55 PM",
                "meetTimeEnd": "3:50 PM",
                "meetPeriodBegin": "7",
                "meetPeriodEnd": "8",
                "meetBuilding": "CSE",
                "meetBldgCode": "0042",
                "meetRoom": "E413"
              }
            ],
            "addEligible": "Y",
            "grWriting": "N",
            "finalExam": "",
            "dropaddDeadline": "10/16/2019",
            "pastDeadline": false
          }
        ]
      },
      {
        "code": "DIG6972C",
        "courseId": "030416",
        "name": "Capstone Project",
        "termInd": " ",
        "description": "Completion of an original project that addresses an identified issue or need within the field of Digital Arts and Sciences.",
        "prerequisites": "Prereq: Advanced standing in the MA in DAS graduate program; Permission of the Instructor.",
        "sections": [
          {
            "number": 1046,
            "classNumber": 12459,
            "gradBasis": "SUS",
            "acadCareer": "GRAD",
            "display": "Departmentally Controlled",
            "credits": 2,
            "credits_min": 2,
            "credits_max": 2,
            "note": "This section meets OCT 14 UNTIL DEC 06   These dates may not include final examinations.",
            "dNote": "",
            "genEd": [],
            "sectWeb": "PC",
            "rotateTitle": "",
            "deptCode": 13050000,
            "deptName": "Digital Worlds Institute",
            "courseFee": 0,
            "lateFlag": "N",
            "EEP": "N",
            "LMS": "",
            "instructors": [
              {
                "name": "Angelos Barmpoutis"
              }
            ],
            "meetTimes": [
              {
                "meetNo": 1,
                "meetDays": [
                  "T",
                  "R"
                ],
                "meetTimeBegin": "10:40 AM",
                "meetTimeEnd": "12:35 PM",
                "meetPeriodBegin": "4",
                "meetPeriodEnd": "5",
                "meetBuilding": "",
                "meetBldgCode": "",
                "meetRoom": ""
              }
            ],
            "addEligible": "Y",
            "grWriting": "N",
            "finalExam": "12/11/2019 @ 12:30 PM - 2:30 PM",
            "dropaddDeadline": "10/16/2019",
            "pastDeadline": false
          }
        ]
      }
    ],
    "LASTCONTROLNUMBER": 2403,
    "RETRIEVEDROWS": 23,
    "TOTALROWS": 23
  }
]